{
    "name": "BetaMovement.Shwarpie.Editor",
    "rootNamespace": "",
    "references": [
        "GUID:68a4b99696a734547b873378cfa0f3eb"
    ],
    "includePlatforms": [
        "Editor"
    ],
    "excludePlatforms": [],
    "allowUnsafeCode": false,
    "overrideReferences": false,
    "precompiledReferences": [],
    "autoReferenced": true,
    "defineConstraints": [],
    "versionDefines": [],
    "noEngineReferences": false
}